[
	{
		"Name": "Cmd",
		"CFlags": [],
		"Include": [
			"cmd.json"
		],
		"Install": "/$ARCH/bin/",
		"SourceFilesCmd": [
			"*.c"
		]
	},
	{
		"Name": "Dirs",
		"Include": [
			"cmd.json"
		],
		"Install": "/$ARCH/bin/",
		"Projects": [
			"9660srv/9660srv.json",
			"acid/acid.json",
			"acpi/build.json",
			"acpica/",
			"acme/build.json",
			"aquarela/build.json",
			"astro/astro.json",
			"auth/auth.json",
			"aux/aux.json",
			"bzip2/bzip2.json",
			"bc/build.json",
			"cb/cb.json",
			"cdfs/cdfs.json",
			"cfs/build.json",
			"cifs/build.json",
			"con/con.json",
			"dial/dial.json",
			"diff/diff.json",
			"disk/disk.json",
			"dossrv/dossrv.json",
			"execnet/build.json",
			"exportfs/exportfs.json",
			"ext2srv/build.json",
			"faces/build.json",
			"fossil/fossil.json",
			"gdbserver/build.json",
			"graph/build.json",
			"grep/grep.json",
			"gzip/build.json",
			"hoc/hoc.json",
			"htmlroff/build.json",
			"iostats/build.json",
			"iozone/fileop.json",
			"ip/ip.json",
			"jay/jay.json",
			"jpg/build.json",
			"lex/build.json",
			"map/build.json",
			"ndb/ndb.json",
			"page/build.json",
			"paqfs/build.json",
			"plot/build.json",
			"plumb/plumb.json",
			"plumb/plumber.json",
			"proof/build.json",
			"rc/rc.json",
			"rio/rio.json",
			"sam/build.json",
			"samterm/build.json",
			"scat/build.json",
			"scuzz/build.json",
			"snap/build.json",
			"ssh1/build.json",
			"tapefs/build.json",
			"tarsplit/build.json",
			"tbl/build.json",
			"troff2html/build.json",
			"units/build.json",
			"usb/build.json",
			"vac/build.json",
			"venti/venti.json",
			"vnc/build.json",
			"vt/build.json",
			"zenith/build.json"
		]
	}
]
